\relax 
\citation{mitchell1988reconstruction}
\citation{arandiga2016nonlinear}
\citation{keys1981cubic}
\citation{chand2008natural}
\citation{parker1983comparison}
\citation{huang2016area}
\citation{kang2011bilinear}
\citation{li2015reducing}
\citation{chai2017visually}
\citation{arandiga2016nonlinear}
\citation{tzeng}
\@writefile{toc}{\contentsline {section}{\numberline {1}Introduction}{1}\protected@file@percent }
\newlabel{sec:introduction}{{1}{1}}
\citation{keys1981cubic}
\citation{gulati2013interpreting}
\citation{lin2016high}
\citation{inoue2010improvement}
\citation{mcandrew2016computational}
\citation{mcandrew2016computational}
\citation{arandiga2016nonlinear}
\citation{mcandrew2016computational}
\citation{wang2011image}
\citation{lin2016high}
\citation{huang2016area}
\citation{arandiga2016nonlinear}
\citation{parker1983comparison}
\@writefile{toc}{\contentsline {section}{\numberline {2}Literature Review}{2}\protected@file@percent }
\@writefile{toc}{\contentsline {subsection}{\numberline {2.1}Linear and Bilinear Interpolation}{2}\protected@file@percent }
\newlabel{eq:lin}{{1}{2}}
\newlabel{eq:lamda}{{2}{2}}
\@writefile{toc}{\contentsline {subsection}{\numberline {2.2}Cubic and Bicubic Interpolation}{2}\protected@file@percent }
\newlabel{eq:cub}{{3}{2}}
\citation{porwal2014performance}
\citation{parker1983comparison}
\citation{unser1991fast}
\citation{abbas2017image}
\citation{porwal2014performance}
\citation{unser1991fast}
\citation{chand2008natural}
\citation{porwal2014performance}
\citation{mitchell1988reconstruction}
\citation{kraus2007gpu}
\citation{faires2013numerical}
\citation{krishnamurthy2016biomechanics}
\citation{porwal2014performance}
\citation{MATLAB:2017}
\citation{parker1983comparison}
\citation{faires2013numerical}
\citation{hou1978cubic}
\citation{zhong2016kernel}
\newlabel{eq:cubsum}{{4}{3}}
\@writefile{toc}{\contentsline {subsubsection}{\numberline {2.2.1}Cubic B-Spline Interpolation}{3}\protected@file@percent }
\@writefile{toc}{\contentsline {subsubsection}{\numberline {2.2.2}Cardinal Cubic Interpolation}{3}\protected@file@percent }
\@writefile{toc}{\contentsline {subsubsection}{\numberline {2.2.3}Mitchell-Netravali Reconstruction Filter}{3}\protected@file@percent }
\@writefile{toc}{\contentsline {subsubsection}{\numberline {2.2.4}Cubic Hermite Interpolation}{3}\protected@file@percent }
\@writefile{toc}{\contentsline {subsubsection}{\numberline {2.2.5}Catmull-Rom Interpolation}{3}\protected@file@percent }
\@writefile{toc}{\contentsline {subsubsection}{\numberline {2.2.6}Matlab's imresize Function}{3}\protected@file@percent }
\@writefile{toc}{\contentsline {subsection}{\numberline {2.3}Other Methods}{3}\protected@file@percent }
\citation{kraus2007gpu}
\citation{li2001new}
\citation{tam2010modified}
\citation{parker1983comparison}
\citation{rathod2017comparative}
\citation{MATLAB:2017}
\citation{MATLAB:2017}
\@writefile{toc}{\contentsline {section}{\numberline {3}Experiment}{4}\protected@file@percent }
\@writefile{toc}{\contentsline {subsection}{\numberline {3.1}Software and Tools Used}{4}\protected@file@percent }
\@writefile{toc}{\contentsline {subsection}{\numberline {3.2}Downscaling}{4}\protected@file@percent }
\@writefile{toc}{\contentsline {subsubsection}{\numberline {3.2.1}Removal of Pixels}{4}\protected@file@percent }
\@writefile{toc}{\contentsline {subsubsection}{\numberline {3.2.2}Averaging of Pixel Intensity Values}{4}\protected@file@percent }
\newlabel{eq:avg2D}{{5}{4}}
\@writefile{toc}{\contentsline {subsection}{\numberline {3.3}Upscaling}{4}\protected@file@percent }
\@writefile{toc}{\contentsline {subsubsection}{\numberline {3.3.1}Bilinear Interpolation}{4}\protected@file@percent }
\newlabel{eq:bilin}{{6}{4}}
\citation{mitchell1988reconstruction}
\citation{bourke1999}
\citation{bourke1999}
\citation{mcandrew2016computational}
\@writefile{toc}{\contentsline {subsubsection}{\numberline {3.3.2}Bicubic Interpolation}{5}\protected@file@percent }
\newlabel{eq:bicub}{{7}{5}}
\newlabel{eq:catroma}{{8}{5}}
\newlabel{eq:catrom}{{9}{5}}
\newlabel{eq:catromsum}{{10}{5}}
\newlabel{eq:hermitem}{{11}{5}}
\newlabel{eq:hermitea}{{12}{5}}
\newlabel{eq:hermite}{{13}{5}}
\newlabel{eq:mcandrew}{{14}{5}}
\citation{liu2017free}
\newlabel{eq:R3}{{15}{6}}
\@writefile{toc}{\contentsline {subsection}{\numberline {3.4}Methods of Comparison and Evaluation}{6}\protected@file@percent }
\newlabel{eq:13}{{16}{6}}
\newlabel{eq:14}{{17}{6}}
\newlabel{eq:15}{{18}{6}}
\@writefile{toc}{\contentsline {section}{\numberline {4}Results}{6}\protected@file@percent }
\@writefile{lof}{\contentsline {figure}{\numberline {1}{\ignorespaces Original 160x160 image before downscaling. All images resulted from the interpolation algorithms are compared to this original image\relax }}{6}\protected@file@percent }
\providecommand*\caption@xref[2]{\@setref\relax\@undefined{#1}}
\newlabel{fig:original}{{1}{6}}
\@writefile{toc}{\contentsline {subsection}{\numberline {4.1}Downscaling Algorithms}{6}\protected@file@percent }
\@writefile{toc}{\contentsline {subsubsection}{\numberline {4.1.1}Visual Comparisons}{6}\protected@file@percent }
\@writefile{lof}{\contentsline {figure}{\numberline {2}{\ignorespaces Downscaled to 40x40 from the original image in Fig. 1\hbox {} by removal of pixels\relax }}{6}\protected@file@percent }
\newlabel{fig:small_mod}{{2}{6}}
\@writefile{lof}{\contentsline {figure}{\numberline {3}{\ignorespaces Downscaled to 40x40 from the original image in Fig. 1\hbox {} by the averaging of pixels\relax }}{6}\protected@file@percent }
\newlabel{fig:small_avg}{{3}{6}}
\@writefile{lof}{\contentsline {figure}{\numberline {4}{\ignorespaces Downscaled to 40x40 from the original image in Fig. 1\hbox {} by using Matlab's imresize function\relax }}{6}\protected@file@percent }
\newlabel{fig:small_imresize}{{4}{6}}
\@writefile{toc}{\contentsline {subsection}{\numberline {4.2}Upscaling Algorithms}{7}\protected@file@percent }
\@writefile{toc}{\contentsline {subsubsection}{\numberline {4.2.1}$RMSD$ \& $PSNR$ Comparisons}{7}\protected@file@percent }
\@writefile{lot}{\contentsline {table}{\numberline {1}{\ignorespaces Comparisons of interpolation algorithms and original image\relax }}{7}\protected@file@percent }
\newlabel{tab:int}{{1}{7}}
\@writefile{lot}{\contentsline {table}{\numberline {2}{\ignorespaces Comparisons of the interpolated images with different order in which their dimensions are interpolated\relax }}{7}\protected@file@percent }
\newlabel{tab:ord}{{2}{7}}
\@writefile{toc}{\contentsline {subsubsection}{\numberline {4.2.2}Visual Comparisons}{7}\protected@file@percent }
\@writefile{lof}{\contentsline {figure}{\numberline {5}{\ignorespaces Upscaled from 40x40 Fig. 4\hbox {} to 160x160 with bilinear interpolation, vertical first, followed by horizontal interpolation\relax }}{7}\protected@file@percent }
\newlabel{fig:bilin_vh}{{5}{7}}
\@writefile{lof}{\contentsline {figure}{\numberline {6}{\ignorespaces Upscaled from 40x40 Fig. 4\hbox {} to 160x160 with bilinear interpolation, horizontal first, followed by vertical interpolation\relax }}{7}\protected@file@percent }
\newlabel{fig:bilin_hv}{{6}{7}}
\@writefile{lof}{\contentsline {figure}{\numberline {7}{\ignorespaces Upscaled from 40x40 Fig. 4\hbox {} to 160x160 with Matlab's imresize bilinear interpolation\relax }}{8}\protected@file@percent }
\newlabel{fig:bilin_imresize}{{7}{8}}
\@writefile{lof}{\contentsline {figure}{\numberline {8}{\ignorespaces Upscaled from 40x40 Fig. 4\hbox {} to 160x160 with Catmul-Rom bicubic interpolation, horizontal first, followed by vertical interpolation\relax }}{8}\protected@file@percent }
\newlabel{fig:bicub_catrom_HV}{{8}{8}}
\@writefile{lof}{\contentsline {figure}{\numberline {9}{\ignorespaces Upscaled from 40x40 Fig. 4\hbox {} to 160x160 with Catmul-Rom bicubic interpolation, vertical first, followed by horizontal interpolation\relax }}{8}\protected@file@percent }
\newlabel{fig:bicub_catrom_VH}{{9}{8}}
\@writefile{lof}{\contentsline {figure}{\numberline {10}{\ignorespaces Upscaled from 40x40 Fig. 4\hbox {} to 160x160 with Hermite interpolation\relax }}{8}\protected@file@percent }
\newlabel{fig:bicub_hermite}{{10}{8}}
\@writefile{lof}{\contentsline {figure}{\numberline {11}{\ignorespaces Upscaled from 40x40 Fig. 4\hbox {} to 160x160 with Mitchell-Netravali reconstruction filter\relax }}{8}\protected@file@percent }
\newlabel{fig:bicub_mi}{{11}{8}}
\@writefile{lof}{\contentsline {figure}{\numberline {12}{\ignorespaces Upscaled from 40x40 Fig. 4\hbox {} to 160x160 with bicubic B-Spline interpolation\relax }}{8}\protected@file@percent }
\newlabel{fig:bicub_bspline}{{12}{8}}
\@writefile{lof}{\contentsline {figure}{\numberline {13}{\ignorespaces Upscaled from 40x40 Fig. 4\hbox {} to 160x160 with cardinal bicubic interpolation\relax }}{9}\protected@file@percent }
\newlabel{fig:bicub_bspline}{{13}{9}}
\@writefile{lof}{\contentsline {figure}{\numberline {14}{\ignorespaces Upscaled from 40x40 Fig. 4\hbox {} to 160x160 by bicubic interpolation as explained by McAndrew\relax }}{9}\protected@file@percent }
\newlabel{fig:bicub_mcandrew}{{14}{9}}
\@writefile{lof}{\contentsline {figure}{\numberline {15}{\ignorespaces Upscaled from 40x40 Fig. 4\hbox {} to 160x160 by Matlab's imresize function with bicubic specified as interpolation method\relax }}{9}\protected@file@percent }
\newlabel{fig:bicub_imresize}{{15}{9}}
\citation{hurtik2015bilinear}
\citation{parker1983comparison}
\bibstyle{IEEEtranS}
\bibdata{BV_opdrag_bibliografie}
\bibcite{abbas2017image}{1}
\bibcite{arandiga2016nonlinear}{2}
\bibcite{bourke1999}{3}
\bibcite{chai2017visually}{4}
\bibcite{chand2008natural}{5}
\bibcite{faires2013numerical}{6}
\bibcite{gulati2013interpreting}{7}
\bibcite{hou1978cubic}{8}
\bibcite{huang2016area}{9}
\bibcite{hurtik2015bilinear}{10}
\bibcite{inoue2010improvement}{11}
\bibcite{kang2011bilinear}{12}
\bibcite{keys1981cubic}{13}
\bibcite{kraus2007gpu}{14}
\bibcite{krishnamurthy2016biomechanics}{15}
\bibcite{li2001new}{16}
\bibcite{li2015reducing}{17}
\bibcite{lin2016high}{18}
\bibcite{liu2017free}{19}
\bibcite{MATLAB:2017}{20}
\bibcite{mcandrew2016computational}{21}
\bibcite{mitchell1988reconstruction}{22}
\bibcite{parker1983comparison}{23}
\bibcite{porwal2014performance}{24}
\bibcite{rathod2017comparative}{25}
\bibcite{tam2010modified}{26}
\bibcite{tzeng}{27}
\bibcite{unser1991fast}{28}
\bibcite{wang2011image}{29}
\bibcite{zhong2016kernel}{30}
\@writefile{toc}{\contentsline {section}{\numberline {5}Conclusion}{10}\protected@file@percent }
\@writefile{toc}{\contentsline {section}{References}{10}\protected@file@percent }
\@writefile{toc}{\contentsline {section}{Appendix\nobreakspace  A: Bilinear Interpolation Matlab Algorithm}{11}\protected@file@percent }
\@writefile{toc}{\contentsline {section}{Appendix\nobreakspace  B: Mitchell-Netravali Bicubic Reconstruction Filter in Matlab}{11}\protected@file@percent }
\@writefile{toc}{\contentsline {section}{Appendix\nobreakspace  C: Hermite Bicubic Interpolation Matlab Algorithm}{13}\protected@file@percent }
\@writefile{toc}{\contentsline {section}{Appendix\nobreakspace  D: McAndrew's Bicubic Interpolation Matlab Algorithm}{14}\protected@file@percent }
\@writefile{toc}{\contentsline {section}{Appendix\nobreakspace  E: Downscale by Averaging of Pixel Intensities Matlab Algorithm}{16}\protected@file@percent }
\@writefile{toc}{\contentsline {section}{Appendix\nobreakspace  F: Downscale by Removal of Pixels Matlab Algorithm}{16}\protected@file@percent }
